(module C_0603 (layer F.Cu) (tedit 5DCBDEE8)
  (descr "Capacitor SMD 0603 (1608 Metric), square (rectangular) end terminal, IPC_7351 nominal, (Body size source: http://www.tortai-tech.com/upload/download/2011102023233369053.pdf), generated with kicad-footprint-generator")
  (tags capacitor)
  (attr smd)
  (fp_text reference REF** (at 0 -1.43) (layer F.SilkS)
    (effects (font (size 1 1) (thickness 0.2)))
  )
  (fp_text value C_0603 (at 0 1.43) (layer F.Fab) hide
    (effects (font (size 1 1) (thickness 0.1)))
  )
  (fp_line (start -0.8 0.4) (end -0.8 -0.4) (layer F.Fab) (width 0.1))
  (fp_line (start -0.8 -0.4) (end 0.8 -0.4) (layer F.Fab) (width 0.1))
  (fp_line (start 0.8 -0.4) (end 0.8 0.4) (layer F.Fab) (width 0.1))
  (fp_line (start 0.8 0.4) (end -0.8 0.4) (layer F.Fab) (width 0.1))
  (fp_line (start -1.48 0.73) (end -1.48 -0.73) (layer F.CrtYd) (width 0.05))
  (fp_line (start -1.48 -0.73) (end 1.48 -0.73) (layer F.CrtYd) (width 0.05))
  (fp_line (start 1.48 -0.73) (end 1.48 0.73) (layer F.CrtYd) (width 0.05))
  (fp_line (start 1.48 0.73) (end -1.48 0.73) (layer F.CrtYd) (width 0.05))
  (fp_line (start -1.4 -0.65) (end -1.4 0.65) (layer F.SilkS) (width 0.2))
  (fp_line (start -0.45 -0.65) (end -1.4 -0.65) (layer F.SilkS) (width 0.2))
  (fp_line (start -1.4 0.65) (end -0.45 0.65) (layer F.SilkS) (width 0.2))
  (fp_line (start 1.4 -0.65) (end 0.45 -0.65) (layer F.SilkS) (width 0.2))
  (fp_line (start 1.4 0.65) (end 0.45 0.65) (layer F.SilkS) (width 0.2))
  (fp_line (start 1.4 -0.65) (end 1.4 0.65) (layer F.SilkS) (width 0.2))
  (pad 1 smd roundrect (at -0.7875 0) (size 0.875 0.95) (layers F.Cu F.Paste F.Mask) (roundrect_rratio 0.25))
  (pad 2 smd roundrect (at 0.7875 0) (size 0.875 0.95) (layers F.Cu F.Paste F.Mask) (roundrect_rratio 0.25))
  (model "${KICAD_BASE}/step/Capacitor_SMD.3dshapes/0603 SMD Capacitor.step"
    (at (xyz 0 0 0))
    (scale (xyz 1 1 1))
    (rotate (xyz 0 0 0))
  )
)
