(module SOIC-8_3.9x4.9mm_P1.27mm (layer F.Cu) (tedit 5D07602B)
  (descr "8-Lead Plastic Small Outline (SN) - Narrow, 3.90 mm Body [SOIC] (see Microchip Packaging Specification http://ww1.microchip.com/downloads/en/PackagingSpec/00000049BQ.pdf)")
  (tags "SOIC 1.27")
  (attr smd)
  (fp_text reference REF** (at 0 -3.5) (layer F.SilkS)
    (effects (font (size 1 1) (thickness 0.2)))
  )
  (fp_text value SOIC-8_3.9x4.9mm_P1.27mm (at 0 3.81) (layer F.Fab) hide
    (effects (font (size 1 1) (thickness 0.15)))
  )
  (fp_text user %R (at 0 0) (layer F.Fab)
    (effects (font (size 1 1) (thickness 0.15)))
  )
  (fp_line (start -0.95 -2.45) (end 1.95 -2.45) (layer F.Fab) (width 0.1))
  (fp_line (start 1.95 -2.45) (end 1.95 2.45) (layer F.Fab) (width 0.1))
  (fp_line (start 1.95 2.45) (end -1.95 2.45) (layer F.Fab) (width 0.1))
  (fp_line (start -1.95 2.45) (end -1.95 -1.45) (layer F.Fab) (width 0.1))
  (fp_line (start -1.95 -1.45) (end -0.95 -2.45) (layer F.Fab) (width 0.1))
  (fp_line (start -3.73 -2.7) (end -3.73 2.7) (layer F.CrtYd) (width 0.05))
  (fp_line (start 3.73 -2.7) (end 3.73 2.7) (layer F.CrtYd) (width 0.05))
  (fp_line (start -3.73 -2.7) (end 3.73 -2.7) (layer F.CrtYd) (width 0.05))
  (fp_line (start -3.73 2.7) (end 3.73 2.7) (layer F.CrtYd) (width 0.05))
  (fp_line (start 2.032 -2.54) (end -3.302 -2.54) (layer F.SilkS) (width 0.2))
  (fp_line (start 2.032 2.54) (end -2.032 2.54) (layer F.SilkS) (width 0.2))
  (pad 1 smd roundrect (at -2.7 -1.905) (size 1.55 0.6) (layers F.Cu F.Paste F.Mask) (roundrect_rratio 0.15))
  (pad 2 smd roundrect (at -2.7 -0.635) (size 1.55 0.6) (layers F.Cu F.Paste F.Mask) (roundrect_rratio 0.15))
  (pad 3 smd roundrect (at -2.7 0.635) (size 1.55 0.6) (layers F.Cu F.Paste F.Mask) (roundrect_rratio 0.15))
  (pad 4 smd roundrect (at -2.7 1.905) (size 1.55 0.6) (layers F.Cu F.Paste F.Mask) (roundrect_rratio 0.15))
  (pad 5 smd roundrect (at 2.7 1.905) (size 1.55 0.6) (layers F.Cu F.Paste F.Mask) (roundrect_rratio 0.15))
  (pad 6 smd roundrect (at 2.7 0.635) (size 1.55 0.6) (layers F.Cu F.Paste F.Mask) (roundrect_rratio 0.15))
  (pad 7 smd roundrect (at 2.7 -0.635) (size 1.55 0.6) (layers F.Cu F.Paste F.Mask) (roundrect_rratio 0.15))
  (pad 8 smd roundrect (at 2.7 -1.905) (size 1.55 0.6) (layers F.Cu F.Paste F.Mask) (roundrect_rratio 0.15))
  (model ${KICAD_BASE}/step/Package_SO.3dshapes/SOIC-8_3.9x4.9mm_P1.27mm.step
    (at (xyz 0 0 0))
    (scale (xyz 1 1 1))
    (rotate (xyz 0 0 0))
  )
)
