(module Crystal_CSA (layer F.Cu) (tedit 5D4256DE)
  (fp_text reference REF** (at 0 -2.54) (layer F.SilkS)
    (effects (font (size 1 1) (thickness 0.2)))
  )
  (fp_text value Crystal_CSA (at 0 2.54) (layer F.Fab)
    (effects (font (size 1 1) (thickness 0.1)))
  )
  (fp_line (start -3.81 -1.27) (end 3.81 -1.27) (layer F.SilkS) (width 0.2))
  (fp_line (start 3.81 -1.27) (end 3.81 1.27) (layer F.SilkS) (width 0.2))
  (fp_line (start 3.81 1.27) (end -3.81 1.27) (layer F.SilkS) (width 0.2))
  (fp_line (start -3.81 1.27) (end -3.81 -1.27) (layer F.SilkS) (width 0.2))
  (pad 1 thru_hole circle (at -2.54 0) (size 1.524 1.524) (drill 0.8) (layers *.Cu *.Mask))
  (pad 2 thru_hole circle (at 2.54 0) (size 1.524 1.524) (drill 0.8) (layers *.Cu *.Mask))
)
